%TF.GenerationSoftware,KiCad,Pcbnew,6.0.4+dfsg-1*%
%TF.CreationDate,2022-05-14T17:49:55+02:00*%
%TF.ProjectId,diyhAVC,64697968-4156-4432-9e6b-696361645f70,0.0.0*%
%TF.SameCoordinates,Original*%
%TF.FileFunction,Copper,L1,Top*%
%TF.FilePolarity,Positive*%
%FSLAX46Y46*%
G04 Gerber Fmt 4.6, Leading zero omitted, Abs format (unit mm)*
G04 Created by KiCad (PCBNEW 6.0.4+dfsg-1) date 2022-05-14 17:49:55*
%MOMM*%
%LPD*%
G01*
G04 APERTURE LIST*
G04 Aperture macros list*
%AMRoundRect*
0 Rectangle with rounded corners*
0 $1 Rounding radius*
0 $2 $3 $4 $5 $6 $7 $8 $9 X,Y pos of 4 corners*
0 Add a 4 corners polygon primitive as box body*
4,1,4,$2,$3,$4,$5,$6,$7,$8,$9,$2,$3,0*
0 Add four circle primitives for the rounded corners*
1,1,$1+$1,$2,$3*
1,1,$1+$1,$4,$5*
1,1,$1+$1,$6,$7*
1,1,$1+$1,$8,$9*
0 Add four rect primitives between the rounded corners*
20,1,$1+$1,$2,$3,$4,$5,0*
20,1,$1+$1,$4,$5,$6,$7,0*
20,1,$1+$1,$6,$7,$8,$9,0*
20,1,$1+$1,$8,$9,$2,$3,0*%
G04 Aperture macros list end*
%TA.AperFunction,ComponentPad*%
%ADD10R,2.000000X1.905000*%
%TD*%
%TA.AperFunction,ComponentPad*%
%ADD11O,2.000000X1.905000*%
%TD*%
%TA.AperFunction,ComponentPad*%
%ADD12R,1.600000X1.600000*%
%TD*%
%TA.AperFunction,ComponentPad*%
%ADD13O,1.600000X1.600000*%
%TD*%
%TA.AperFunction,ComponentPad*%
%ADD14R,2.400000X1.600000*%
%TD*%
%TA.AperFunction,ComponentPad*%
%ADD15O,2.400000X1.600000*%
%TD*%
%TA.AperFunction,ComponentPad*%
%ADD16R,1.600000X2.400000*%
%TD*%
%TA.AperFunction,ComponentPad*%
%ADD17O,1.600000X2.400000*%
%TD*%
%TA.AperFunction,ComponentPad*%
%ADD18RoundRect,0.250000X-0.600000X-0.725000X0.600000X-0.725000X0.600000X0.725000X-0.600000X0.725000X0*%
%TD*%
%TA.AperFunction,ComponentPad*%
%ADD19O,1.700000X1.950000*%
%TD*%
%TA.AperFunction,ComponentPad*%
%ADD20RoundRect,0.250000X-0.600000X-0.750000X0.600000X-0.750000X0.600000X0.750000X-0.600000X0.750000X0*%
%TD*%
%TA.AperFunction,ComponentPad*%
%ADD21O,1.700000X2.000000*%
%TD*%
%TA.AperFunction,ComponentPad*%
%ADD22C,2.800000*%
%TD*%
%TA.AperFunction,ComponentPad*%
%ADD23R,2.200000X2.200000*%
%TD*%
%TA.AperFunction,ComponentPad*%
%ADD24O,2.200000X2.200000*%
%TD*%
%TA.AperFunction,ComponentPad*%
%ADD25O,1.500000X1.500000*%
%TD*%
%TA.AperFunction,ComponentPad*%
%ADD26R,1.500000X1.500000*%
%TD*%
%TA.AperFunction,ComponentPad*%
%ADD27R,2.000000X2.000000*%
%TD*%
%TA.AperFunction,ComponentPad*%
%ADD28O,2.000000X2.000000*%
%TD*%
%TA.AperFunction,ComponentPad*%
%ADD29R,2.400000X2.400000*%
%TD*%
%TA.AperFunction,ComponentPad*%
%ADD30O,2.400000X2.400000*%
%TD*%
%TA.AperFunction,SMDPad,CuDef*%
%ADD31RoundRect,0.250000X-0.550000X1.050000X-0.550000X-1.050000X0.550000X-1.050000X0.550000X1.050000X0*%
%TD*%
%TA.AperFunction,SMDPad,CuDef*%
%ADD32RoundRect,0.250000X1.050000X0.550000X-1.050000X0.550000X-1.050000X-0.550000X1.050000X-0.550000X0*%
%TD*%
%TA.AperFunction,SMDPad,CuDef*%
%ADD33R,2.200000X1.600000*%
%TD*%
%TA.AperFunction,ComponentPad*%
%ADD34R,2.032000X2.032000*%
%TD*%
%TA.AperFunction,ComponentPad*%
%ADD35C,2.032000*%
%TD*%
%TA.AperFunction,ViaPad*%
%ADD36C,0.800000*%
%TD*%
%TA.AperFunction,Conductor*%
%ADD37C,0.500000*%
%TD*%
G04 APERTURE END LIST*
D10*
%TO.P,U61,1,VI*%
%TO.N,Net-(C62-Pad1)*%
X85145000Y-115440000D03*
D11*
%TO.P,U61,2,GND*%
%TO.N,GND*%
X85145000Y-112900000D03*
%TO.P,U61,3,VO*%
%TO.N,+5V*%
X85145000Y-110360000D03*
%TD*%
D12*
%TO.P,U51,1,~{RESET}/PC6*%
%TO.N,unconnected-(U51-Pad1)*%
X133300000Y-110700000D03*
D13*
%TO.P,U51,2,PD0*%
%TO.N,MCU_CS*%
X135840000Y-110700000D03*
%TO.P,U51,3,PD1*%
%TO.N,unconnected-(U51-Pad3)*%
X138380000Y-110700000D03*
%TO.P,U51,4,PD2*%
%TO.N,unconnected-(U51-Pad4)*%
X140920000Y-110700000D03*
%TO.P,U51,5,PD3*%
%TO.N,unconnected-(U51-Pad5)*%
X143460000Y-110700000D03*
%TO.P,U51,6,PD4*%
%TO.N,unconnected-(U51-Pad6)*%
X146000000Y-110700000D03*
%TO.P,U51,7,VCC*%
%TO.N,+5V*%
X148540000Y-110700000D03*
%TO.P,U51,8,GND*%
%TO.N,GND*%
X151080000Y-110700000D03*
%TO.P,U51,9,XTAL1/PB6*%
%TO.N,unconnected-(U51-Pad9)*%
X153620000Y-110700000D03*
%TO.P,U51,10,XTAL2/PB7*%
%TO.N,unconnected-(U51-Pad10)*%
X156160000Y-110700000D03*
%TO.P,U51,11,PD5*%
%TO.N,unconnected-(U51-Pad11)*%
X158700000Y-110700000D03*
%TO.P,U51,12,PD6*%
%TO.N,L1*%
X161240000Y-110700000D03*
%TO.P,U51,13,PD7*%
%TO.N,L2*%
X163780000Y-110700000D03*
%TO.P,U51,14,PB0*%
%TO.N,L3*%
X166320000Y-110700000D03*
%TO.P,U51,15,PB1*%
%TO.N,L4*%
X166320000Y-103080000D03*
%TO.P,U51,16,PB2*%
%TO.N,L5*%
X163780000Y-103080000D03*
%TO.P,U51,17,PB3*%
%TO.N,MCU_MOSI*%
X161240000Y-103080000D03*
%TO.P,U51,18,PB4*%
%TO.N,unconnected-(U51-Pad18)*%
X158700000Y-103080000D03*
%TO.P,U51,19,PB5*%
%TO.N,MCU_SCK*%
X156160000Y-103080000D03*
%TO.P,U51,20,AVCC*%
%TO.N,+5V*%
X153620000Y-103080000D03*
%TO.P,U51,21,AREF*%
%TO.N,Net-(U51-Pad21)*%
X151080000Y-103080000D03*
%TO.P,U51,22,GND*%
%TO.N,GND*%
X148540000Y-103080000D03*
%TO.P,U51,23,PC0*%
%TO.N,MCU_DAC*%
X146000000Y-103080000D03*
%TO.P,U51,24,PC1*%
%TO.N,L6*%
X143460000Y-103080000D03*
%TO.P,U51,25,PC2*%
%TO.N,L7*%
X140920000Y-103080000D03*
%TO.P,U51,26,PC3*%
%TO.N,L8*%
X138380000Y-103080000D03*
%TO.P,U51,27,PC4*%
%TO.N,L9*%
X135840000Y-103080000D03*
%TO.P,U51,28,PC5*%
%TO.N,L10*%
X133300000Y-103080000D03*
%TD*%
D14*
%TO.P,U31,1*%
%TO.N,Net-(R41-Pad2)*%
X117275000Y-107300000D03*
D15*
%TO.P,U31,2,-*%
%TO.N,GND*%
X117275000Y-109840000D03*
%TO.P,U31,3,+*%
%TO.N,Net-(R39-Pad2)*%
X117275000Y-112380000D03*
%TO.P,U31,4,V-*%
%TO.N,-5V*%
X117275000Y-114920000D03*
%TO.P,U31,5,+*%
%TO.N,GND*%
X124895000Y-114920000D03*
%TO.P,U31,6,-*%
%TO.N,Net-(R42-Pad2)*%
X124895000Y-112380000D03*
%TO.P,U31,7*%
%TO.N,MCU_DAC*%
X124895000Y-109840000D03*
%TO.P,U31,8,V+*%
%TO.N,+5V*%
X124895000Y-107300000D03*
%TD*%
%TO.P,U21,8,V+*%
%TO.N,+5V*%
X155595000Y-67300000D03*
%TO.P,U21,7*%
%TO.N,Net-(U21-Pad7)*%
X155595000Y-69840000D03*
%TO.P,U21,6,-*%
%TO.N,Net-(U21-Pad6)*%
X155595000Y-72380000D03*
%TO.P,U21,5,+*%
%TO.N,Net-(U21-Pad5)*%
X155595000Y-74920000D03*
%TO.P,U21,4,V-*%
%TO.N,-5V*%
X147975000Y-74920000D03*
%TO.P,U21,3,+*%
%TO.N,Net-(U21-Pad3)*%
X147975000Y-72380000D03*
%TO.P,U21,2,-*%
%TO.N,Net-(U21-Pad2)*%
X147975000Y-69840000D03*
D14*
%TO.P,U21,1*%
%TO.N,Net-(U21-Pad1)*%
X147975000Y-67300000D03*
%TD*%
D16*
%TO.P,U11,1,FB/SHDN*%
%TO.N,unconnected-(U11-Pad1)*%
X91700000Y-109325000D03*
D17*
%TO.P,U11,2,CAP+*%
%TO.N,Net-(C12-Pad1)*%
X94240000Y-109325000D03*
%TO.P,U11,3,GND*%
%TO.N,GND*%
X96780000Y-109325000D03*
%TO.P,U11,4,CAP-*%
%TO.N,Net-(C12-Pad2)*%
X99320000Y-109325000D03*
%TO.P,U11,5,-VOUT*%
%TO.N,-5V*%
X99320000Y-101705000D03*
%TO.P,U11,6,VREF*%
%TO.N,unconnected-(U11-Pad6)*%
X96780000Y-101705000D03*
%TO.P,U11,7,OSC*%
%TO.N,unconnected-(U11-Pad7)*%
X94240000Y-101705000D03*
%TO.P,U11,8,V+*%
%TO.N,+5V*%
X91700000Y-101705000D03*
%TD*%
D16*
%TO.P,U2,1*%
%TO.N,AROut*%
X156702500Y-130147500D03*
D17*
%TO.P,U2,2,-*%
X159242500Y-130147500D03*
%TO.P,U2,3,+*%
%TO.N,Net-(U1-Pad9)*%
X161782500Y-130147500D03*
%TO.P,U2,4,V-*%
%TO.N,-5V*%
X164322500Y-130147500D03*
%TO.P,U2,5,+*%
%TO.N,Net-(U1-Pad6)*%
X164322500Y-122527500D03*
%TO.P,U2,6,-*%
%TO.N,ALOUT*%
X161782500Y-122527500D03*
%TO.P,U2,7*%
X159242500Y-122527500D03*
%TO.P,U2,8,V+*%
%TO.N,+5V*%
X156702500Y-122527500D03*
%TD*%
D16*
%TO.P,U1,1,~{CS}*%
%TO.N,MCU_CS*%
X144527500Y-122397500D03*
D17*
%TO.P,U1,2,SCK*%
%TO.N,MCU_SCK*%
X141987500Y-122397500D03*
%TO.P,U1,3,SI*%
%TO.N,MCU_MOSI*%
X139447500Y-122397500D03*
%TO.P,U1,4,VSS*%
%TO.N,GND*%
X136907500Y-122397500D03*
%TO.P,U1,5,PB1*%
X134367500Y-122397500D03*
%TO.P,U1,6,PW1*%
%TO.N,Net-(U1-Pad6)*%
X131827500Y-122397500D03*
%TO.P,U1,7,PA1*%
%TO.N,AL*%
X129287500Y-122397500D03*
%TO.P,U1,8,PA0*%
%TO.N,AR*%
X129287500Y-130017500D03*
%TO.P,U1,9,PW0*%
%TO.N,Net-(U1-Pad9)*%
X131827500Y-130017500D03*
%TO.P,U1,10,PB0*%
%TO.N,GND*%
X134367500Y-130017500D03*
%TO.P,U1,11,~{RS}*%
%TO.N,unconnected-(U1-Pad11)*%
X136907500Y-130017500D03*
%TO.P,U1,12,~{SHDN}*%
%TO.N,unconnected-(U1-Pad12)*%
X139447500Y-130017500D03*
%TO.P,U1,13,SO*%
%TO.N,unconnected-(U1-Pad13)*%
X141987500Y-130017500D03*
%TO.P,U1,14,VDD*%
%TO.N,+5V*%
X144527500Y-130017500D03*
%TD*%
D18*
%TO.P,SW61,1,A*%
%TO.N,unconnected-(SW61-Pad1)*%
X98400000Y-128392500D03*
D19*
%TO.P,SW61,2,B*%
%TO.N,Net-(D61-Pad2)*%
X100900000Y-128392500D03*
%TO.P,SW61,3,C*%
%TO.N,VCC*%
X103400000Y-128392500D03*
%TD*%
D12*
%TO.P,RN51,1,common*%
%TO.N,GND*%
X112700000Y-103300000D03*
D13*
%TO.P,RN51,2,R1*%
%TO.N,Net-(BAR51-Pad20)*%
X112700000Y-100760000D03*
%TO.P,RN51,3,R2*%
%TO.N,Net-(BAR51-Pad19)*%
X112700000Y-98220000D03*
%TO.P,RN51,4,R3*%
%TO.N,Net-(BAR51-Pad18)*%
X112700000Y-95680000D03*
%TO.P,RN51,5,R4*%
%TO.N,Net-(BAR51-Pad17)*%
X112700000Y-93140000D03*
%TO.P,RN51,6,R5*%
%TO.N,Net-(BAR51-Pad16)*%
X112700000Y-90600000D03*
%TO.P,RN51,7,R6*%
%TO.N,Net-(BAR51-Pad15)*%
X112700000Y-88060000D03*
%TO.P,RN51,8,R7*%
%TO.N,Net-(BAR51-Pad14)*%
X112700000Y-85520000D03*
%TO.P,RN51,9,R8*%
%TO.N,Net-(BAR51-Pad13)*%
X112700000Y-82980000D03*
%TO.P,RN51,10,R9*%
%TO.N,Net-(BAR51-Pad12)*%
X112700000Y-80440000D03*
%TO.P,RN51,11,R10*%
%TO.N,Net-(BAR51-Pad11)*%
X112700000Y-77900000D03*
%TD*%
D20*
%TO.P,J63,1,Pin_1*%
%TO.N,VCC*%
X110350000Y-128392500D03*
D21*
%TO.P,J63,2,Pin_2*%
%TO.N,GND*%
X112850000Y-128392500D03*
%TD*%
D22*
%TO.P,J62,R*%
%TO.N,AROut*%
X173000000Y-78700000D03*
%TO.P,J62,S*%
%TO.N,ALOUT*%
X171000000Y-70800000D03*
%TO.P,J62,T*%
%TO.N,GND*%
X173000000Y-73200000D03*
%TD*%
%TO.P,J61,R*%
%TO.N,AR*%
X91500000Y-79000000D03*
%TO.P,J61,S*%
%TO.N,AL*%
X89500000Y-71100000D03*
%TO.P,J61,T*%
%TO.N,GND*%
X91500000Y-73500000D03*
%TD*%
D23*
%TO.P,D61,1,K*%
%TO.N,Net-(C62-Pad1)*%
X101200000Y-122592500D03*
D24*
%TO.P,D61,2,A*%
%TO.N,Net-(D61-Pad2)*%
X91040000Y-122592500D03*
%TD*%
D25*
%TO.P,D32,2,A*%
%TO.N,Net-(U21-Pad7)*%
X158900000Y-69800000D03*
D26*
%TO.P,D32,1,K*%
%TO.N,Net-(C34-Pad1)*%
X158900000Y-82500000D03*
%TD*%
D25*
%TO.P,D31,2,A*%
%TO.N,Net-(U21-Pad1)*%
X144900000Y-67250000D03*
D26*
%TO.P,D31,1,K*%
%TO.N,Net-(C33-Pad1)*%
X144900000Y-79950000D03*
%TD*%
D27*
%TO.P,C63,1*%
%TO.N,+5V*%
X90400000Y-115242500D03*
D28*
%TO.P,C63,2*%
%TO.N,GND*%
X105400000Y-115242500D03*
%TD*%
D29*
%TO.P,C62,1*%
%TO.N,Net-(C62-Pad1)*%
X105000000Y-122592500D03*
D30*
%TO.P,C62,2*%
%TO.N,GND*%
X123000000Y-122592500D03*
%TD*%
D31*
%TO.P,C34,2*%
%TO.N,GND*%
X163100000Y-86700000D03*
%TO.P,C34,1*%
%TO.N,Net-(C34-Pad1)*%
X163100000Y-83100000D03*
%TD*%
D32*
%TO.P,C33,2*%
%TO.N,GND*%
X139800000Y-86800000D03*
%TO.P,C33,1*%
%TO.N,Net-(C33-Pad1)*%
X143400000Y-86800000D03*
%TD*%
D31*
%TO.P,C12,1*%
%TO.N,Net-(C12-Pad1)*%
X104400000Y-106200000D03*
%TO.P,C12,2*%
%TO.N,Net-(C12-Pad2)*%
X104400000Y-109800000D03*
%TD*%
D33*
%TO.P,C11,1*%
%TO.N,+5V*%
X90900000Y-128000000D03*
%TO.P,C11,2*%
%TO.N,GND*%
X87900000Y-128000000D03*
%TD*%
D34*
%TO.P,BAR51,1,A*%
%TO.N,L1*%
X128200000Y-98300000D03*
D35*
%TO.P,BAR51,2,A*%
%TO.N,L2*%
X128200000Y-95760000D03*
%TO.P,BAR51,3,A*%
%TO.N,L3*%
X128200000Y-93220000D03*
%TO.P,BAR51,4,A*%
%TO.N,L4*%
X128200000Y-90680000D03*
%TO.P,BAR51,5,A*%
%TO.N,L5*%
X128200000Y-88140000D03*
%TO.P,BAR51,6,A*%
%TO.N,L6*%
X128200000Y-85600000D03*
%TO.P,BAR51,7,A*%
%TO.N,L7*%
X128200000Y-83060000D03*
%TO.P,BAR51,8,A*%
%TO.N,L8*%
X128200000Y-80520000D03*
%TO.P,BAR51,9,A*%
%TO.N,L9*%
X128200000Y-77980000D03*
%TO.P,BAR51,10,A*%
%TO.N,L10*%
X128200000Y-75440000D03*
%TO.P,BAR51,11,K*%
%TO.N,Net-(BAR51-Pad11)*%
X120580000Y-75440000D03*
%TO.P,BAR51,12,K*%
%TO.N,Net-(BAR51-Pad12)*%
X120580000Y-77980000D03*
%TO.P,BAR51,13,K*%
%TO.N,Net-(BAR51-Pad13)*%
X120580000Y-80520000D03*
%TO.P,BAR51,14,K*%
%TO.N,Net-(BAR51-Pad14)*%
X120580000Y-83060000D03*
%TO.P,BAR51,15,K*%
%TO.N,Net-(BAR51-Pad15)*%
X120580000Y-85600000D03*
%TO.P,BAR51,16,K*%
%TO.N,Net-(BAR51-Pad16)*%
X120580000Y-88140000D03*
%TO.P,BAR51,17,K*%
%TO.N,Net-(BAR51-Pad17)*%
X120580000Y-90680000D03*
%TO.P,BAR51,18,K*%
%TO.N,Net-(BAR51-Pad18)*%
X120580000Y-93220000D03*
%TO.P,BAR51,19,K*%
%TO.N,Net-(BAR51-Pad19)*%
X120580000Y-95760000D03*
%TO.P,BAR51,20,K*%
%TO.N,Net-(BAR51-Pad20)*%
X120580000Y-98300000D03*
%TD*%
D36*
%TO.N,GND*%
X151200000Y-96600000D03*
X137300000Y-120000000D03*
X150500000Y-114300000D03*
X138300000Y-84300000D03*
%TO.N,AR*%
X123800000Y-130100000D03*
X89700000Y-97000000D03*
%TO.N,Net-(R39-Pad2)*%
X146700000Y-98800000D03*
X142200000Y-99000000D03*
X121549500Y-112300000D03*
%TO.N,GND*%
X160800000Y-88300000D03*
X85400000Y-127900000D03*
%TO.N,+5V*%
X153800000Y-97100000D03*
X165400000Y-89100000D03*
%TO.N,Net-(U1-Pad6)*%
X146200000Y-117100000D03*
X141500000Y-116600000D03*
X167600000Y-122500000D03*
X151000000Y-124000000D03*
%TO.N,MCU_SCK*%
X142300000Y-119500000D03*
X165600000Y-108000000D03*
%TO.N,MCU_MOSI*%
X147300000Y-125000000D03*
X166900000Y-105700000D03*
%TO.N,Net-(R41-Pad2)*%
X128100000Y-120000000D03*
X120700000Y-110000000D03*
%TO.N,L10*%
X130700000Y-75500000D03*
X131300000Y-95400000D03*
%TO.N,L9*%
X135500000Y-98900000D03*
X133200000Y-79600000D03*
%TO.N,L8*%
X134800000Y-83000000D03*
X138100000Y-96500000D03*
%TO.N,L7*%
X141100000Y-96400000D03*
X136800000Y-87300000D03*
%TO.N,L6*%
X143500000Y-101200000D03*
X138000000Y-90150500D03*
%TO.N,L5*%
X162900000Y-91000000D03*
X163800000Y-100800000D03*
%TO.N,L4*%
X166200000Y-100900000D03*
X166200000Y-96500000D03*
%TO.N,L2*%
X155500000Y-106900000D03*
X131200000Y-106100000D03*
%TO.N,L1*%
X130000000Y-106450500D03*
X155400000Y-108300000D03*
%TO.N,MCU_DAC*%
X128600000Y-108600000D03*
X145000000Y-105200000D03*
%TO.N,Net-(C12-Pad1)*%
X94800000Y-106500000D03*
%TO.N,Net-(C12-Pad2)*%
X101000000Y-109600000D03*
%TO.N,-5V*%
X133800000Y-125400000D03*
X164200000Y-127700000D03*
X114700000Y-122000000D03*
X145600000Y-77300000D03*
X114700000Y-115000000D03*
X101700000Y-101600000D03*
%TO.N,Net-(C33-Pad1)*%
X152300000Y-82500000D03*
X145000000Y-83000000D03*
%TO.N,Net-(U21-Pad2)*%
X138300000Y-67400000D03*
X138300000Y-72100000D03*
%TO.N,Net-(R39-Pad2)*%
X155900000Y-85200000D03*
X162500000Y-80100000D03*
%TO.N,Net-(C34-Pad1)*%
X160600000Y-82600000D03*
%TO.N,+5V*%
X142900000Y-127000000D03*
X89400000Y-104700000D03*
%TO.N,AL*%
X128300000Y-125200000D03*
X117500000Y-119400000D03*
%TO.N,+5V*%
X90300000Y-117400000D03*
%TD*%
D37*
%TO.N,GND*%
X151200000Y-96600000D02*
X159500000Y-88300000D01*
X159500000Y-88300000D02*
X160800000Y-88300000D01*
X137300000Y-118700000D02*
X137300000Y-120000000D01*
X141700000Y-114300000D02*
X137300000Y-118700000D01*
X150500000Y-114300000D02*
X141700000Y-114300000D01*
X139800000Y-85800000D02*
X138300000Y-84300000D01*
X139800000Y-86800000D02*
X139800000Y-85800000D01*
%TO.N,AR*%
X121700000Y-132200000D02*
X123800000Y-130100000D01*
X85200000Y-132200000D02*
X121700000Y-132200000D01*
X89700000Y-97000000D02*
X82800000Y-103900000D01*
X82800000Y-129800000D02*
X84300000Y-131300000D01*
X84300000Y-131300000D02*
X85200000Y-132200000D01*
X82800000Y-103900000D02*
X82800000Y-129800000D01*
%TO.N,Net-(R39-Pad2)*%
X138300000Y-100800000D02*
X140400000Y-100800000D01*
X140400000Y-100800000D02*
X142200000Y-99000000D01*
X146700000Y-98800000D02*
X155900000Y-89600000D01*
X155900000Y-89600000D02*
X155900000Y-85200000D01*
X121549500Y-112300000D02*
X121549500Y-112050500D01*
X121549500Y-112050500D02*
X122200000Y-111400000D01*
X122200000Y-111400000D02*
X122200000Y-104100000D01*
X122200000Y-104100000D02*
X125500000Y-100800000D01*
X125500000Y-100800000D02*
X138300000Y-100800000D01*
%TO.N,GND*%
X162400000Y-86700000D02*
X160800000Y-88300000D01*
X163100000Y-86700000D02*
X162400000Y-86700000D01*
X85500000Y-128000000D02*
X85400000Y-127900000D01*
X87900000Y-128000000D02*
X85500000Y-128000000D01*
%TO.N,+5V*%
X153800000Y-95800000D02*
X153800000Y-97100000D01*
X160000000Y-89600000D02*
X153800000Y-95800000D01*
X165400000Y-89100000D02*
X164900000Y-89600000D01*
X164900000Y-89600000D02*
X160000000Y-89600000D01*
%TO.N,Net-(U1-Pad6)*%
X151000000Y-124000000D02*
X153200000Y-126200000D01*
X141500000Y-116600000D02*
X145700000Y-116600000D01*
X145700000Y-116600000D02*
X146200000Y-117100000D01*
X167600000Y-123600000D02*
X167600000Y-122500000D01*
X153200000Y-126200000D02*
X165000000Y-126200000D01*
X165000000Y-126200000D02*
X167600000Y-123600000D01*
%TO.N,MCU_SCK*%
X143700000Y-118100000D02*
X142300000Y-119500000D01*
X164900000Y-118100000D02*
X143700000Y-118100000D01*
X165600000Y-108000000D02*
X167000000Y-108000000D01*
X168200000Y-109200000D02*
X168200000Y-114800000D01*
X167000000Y-108000000D02*
X168200000Y-109200000D01*
X168200000Y-114800000D02*
X164900000Y-118100000D01*
%TO.N,MCU_MOSI*%
X166900000Y-105700000D02*
X169500000Y-108300000D01*
X152500000Y-119300000D02*
X147300000Y-124500000D01*
X169500000Y-108300000D02*
X169500000Y-115900000D01*
X147300000Y-124500000D02*
X147300000Y-125000000D01*
X169500000Y-115900000D02*
X166100000Y-119300000D01*
X166100000Y-119300000D02*
X152500000Y-119300000D01*
%TO.N,Net-(R41-Pad2)*%
X128100000Y-120000000D02*
X123500000Y-120000000D01*
X123500000Y-120000000D02*
X120700000Y-117200000D01*
X120700000Y-117200000D02*
X120700000Y-110000000D01*
%TO.N,L10*%
X131300000Y-76100000D02*
X130700000Y-75500000D01*
X131300000Y-95400000D02*
X131300000Y-76100000D01*
%TO.N,L9*%
X133200000Y-96600000D02*
X135500000Y-98900000D01*
X133200000Y-79600000D02*
X133200000Y-96600000D01*
%TO.N,L8*%
X134800000Y-93200000D02*
X134800000Y-83000000D01*
X134900000Y-93300000D02*
X134800000Y-93200000D01*
X138100000Y-96500000D02*
X134900000Y-93300000D01*
%TO.N,L7*%
X136800000Y-92100000D02*
X141100000Y-96400000D01*
X136800000Y-91600000D02*
X136800000Y-92100000D01*
X136800000Y-87300000D02*
X136800000Y-91600000D01*
%TO.N,L6*%
X143500000Y-95650500D02*
X143500000Y-101200000D01*
X138000000Y-90150500D02*
X143500000Y-95650500D01*
%TO.N,L5*%
X163800000Y-91900000D02*
X163800000Y-100800000D01*
X162900000Y-91000000D02*
X163800000Y-91900000D01*
%TO.N,L4*%
X166200000Y-96500000D02*
X166200000Y-100900000D01*
%TO.N,L2*%
X155500000Y-106900000D02*
X132000000Y-106900000D01*
X132000000Y-106900000D02*
X131200000Y-106100000D01*
%TO.N,L1*%
X131849500Y-108300000D02*
X130000000Y-106450500D01*
X155400000Y-108300000D02*
X131849500Y-108300000D01*
%TO.N,MCU_DAC*%
X128600000Y-108600000D02*
X128600000Y-105800000D01*
X128600000Y-105800000D02*
X129200000Y-105200000D01*
X129200000Y-105200000D02*
X145000000Y-105200000D01*
%TO.N,Net-(C12-Pad1)*%
X104400000Y-106200000D02*
X95100000Y-106200000D01*
X95100000Y-106200000D02*
X94800000Y-106500000D01*
%TO.N,Net-(C12-Pad2)*%
X104200000Y-109600000D02*
X104400000Y-109800000D01*
X101000000Y-109600000D02*
X104200000Y-109600000D01*
%TO.N,-5V*%
X147600000Y-127700000D02*
X145400000Y-125500000D01*
X164200000Y-127700000D02*
X147800000Y-127700000D01*
X145300000Y-125400000D02*
X133800000Y-125400000D01*
X145400000Y-125500000D02*
X145300000Y-125400000D01*
X147800000Y-127700000D02*
X147600000Y-127700000D01*
X114700000Y-122000000D02*
X114700000Y-115000000D01*
X131700000Y-72000000D02*
X111600000Y-72000000D01*
X145600000Y-77300000D02*
X137000000Y-77300000D01*
X106849511Y-96450489D02*
X101700000Y-101600000D01*
X137000000Y-77300000D02*
X131700000Y-72000000D01*
X111600000Y-72000000D02*
X106849511Y-76750489D01*
X106849511Y-76750489D02*
X106849511Y-96450489D01*
X108300000Y-103400000D02*
X106500000Y-101600000D01*
X108500000Y-108800000D02*
X108300000Y-108600000D01*
X114700000Y-115000000D02*
X108500000Y-108800000D01*
X106500000Y-101600000D02*
X101700000Y-101600000D01*
X108300000Y-108600000D02*
X108300000Y-103400000D01*
%TO.N,Net-(C33-Pad1)*%
X151800000Y-83000000D02*
X152300000Y-82500000D01*
X145000000Y-83000000D02*
X151800000Y-83000000D01*
X145000000Y-83000000D02*
X145000000Y-85200000D01*
X145000000Y-85200000D02*
X143400000Y-86800000D01*
%TO.N,Net-(U21-Pad2)*%
X138300000Y-67400000D02*
X138300000Y-72100000D01*
%TO.N,Net-(R39-Pad2)*%
X157600000Y-80100000D02*
X162500000Y-80100000D01*
X155900000Y-81800000D02*
X157600000Y-80100000D01*
X155900000Y-85200000D02*
X155900000Y-81800000D01*
%TO.N,Net-(C34-Pad1)*%
X163100000Y-83100000D02*
X161100000Y-83100000D01*
X161100000Y-83100000D02*
X160600000Y-82600000D01*
%TO.N,+5V*%
X117700000Y-125400000D02*
X119300000Y-127000000D01*
X92100000Y-125400000D02*
X117500000Y-125400000D01*
X117500000Y-125400000D02*
X117700000Y-125400000D01*
X90900000Y-126600000D02*
X92000000Y-125500000D01*
X92000000Y-125500000D02*
X92100000Y-125400000D01*
X119300000Y-127000000D02*
X142900000Y-127000000D01*
X89950000Y-117750000D02*
X88600000Y-119100000D01*
X90300000Y-117400000D02*
X89950000Y-117750000D01*
X89400000Y-104700000D02*
X89400000Y-112400000D01*
X87800000Y-115600000D02*
X89950000Y-117750000D01*
X89400000Y-112400000D02*
X87800000Y-114000000D01*
X87800000Y-114000000D02*
X87800000Y-115600000D01*
%TO.N,AL*%
X117500000Y-119425262D02*
X119300000Y-121225262D01*
X125000000Y-125800000D02*
X127700000Y-125800000D01*
X127700000Y-125800000D02*
X128300000Y-125200000D01*
X117500000Y-119400000D02*
X117500000Y-119425262D01*
X119300000Y-121225262D02*
X119900000Y-121825262D01*
X119900000Y-125100000D02*
X120600000Y-125800000D01*
X120600000Y-125800000D02*
X125000000Y-125800000D01*
X119900000Y-121825262D02*
X119900000Y-125100000D01*
%TO.N,+5V*%
X88600000Y-119100000D02*
X88600000Y-124300000D01*
X88600000Y-124300000D02*
X90900000Y-126600000D01*
X90900000Y-126600000D02*
X90900000Y-128000000D01*
%TD*%
M02*
