%TF.GenerationSoftware,KiCad,Pcbnew,6.0.4+dfsg-1*%
%TF.CreationDate,2022-05-14T17:49:55+02:00*%
%TF.ProjectId,diyhAVC,64697968-4156-4432-9e6b-696361645f70,0.0.0*%
%TF.SameCoordinates,Original*%
%TF.FileFunction,Paste,Bot*%
%TF.FilePolarity,Positive*%
%FSLAX46Y46*%
G04 Gerber Fmt 4.6, Leading zero omitted, Abs format (unit mm)*
G04 Created by KiCad (PCBNEW 6.0.4+dfsg-1) date 2022-05-14 17:49:55*
%MOMM*%
%LPD*%
G01*
G04 APERTURE LIST*
G04 Aperture macros list*
%AMRoundRect*
0 Rectangle with rounded corners*
0 $1 Rounding radius*
0 $2 $3 $4 $5 $6 $7 $8 $9 X,Y pos of 4 corners*
0 Add a 4 corners polygon primitive as box body*
4,1,4,$2,$3,$4,$5,$6,$7,$8,$9,$2,$3,0*
0 Add four circle primitives for the rounded corners*
1,1,$1+$1,$2,$3*
1,1,$1+$1,$4,$5*
1,1,$1+$1,$6,$7*
1,1,$1+$1,$8,$9*
0 Add four rect primitives between the rounded corners*
20,1,$1+$1,$2,$3,$4,$5,0*
20,1,$1+$1,$4,$5,$6,$7,0*
20,1,$1+$1,$6,$7,$8,$9,0*
20,1,$1+$1,$8,$9,$2,$3,0*%
G04 Aperture macros list end*
%ADD10RoundRect,0.250000X0.450000X-0.350000X0.450000X0.350000X-0.450000X0.350000X-0.450000X-0.350000X0*%
%ADD11RoundRect,0.250000X-0.350000X-0.450000X0.350000X-0.450000X0.350000X0.450000X-0.350000X0.450000X0*%
%ADD12RoundRect,0.250000X-0.450000X0.350000X-0.450000X-0.350000X0.450000X-0.350000X0.450000X0.350000X0*%
%ADD13RoundRect,0.250000X0.350000X0.450000X-0.350000X0.450000X-0.350000X-0.450000X0.350000X-0.450000X0*%
%ADD14RoundRect,0.225000X0.225000X0.250000X-0.225000X0.250000X-0.225000X-0.250000X0.225000X-0.250000X0*%
%ADD15RoundRect,0.225000X0.250000X-0.225000X0.250000X0.225000X-0.250000X0.225000X-0.250000X-0.225000X0*%
%ADD16RoundRect,0.225000X-0.225000X-0.250000X0.225000X-0.250000X0.225000X0.250000X-0.225000X0.250000X0*%
G04 APERTURE END LIST*
D10*
%TO.C,R43*%
X128100000Y-112300000D03*
X128100000Y-110300000D03*
%TD*%
%TO.C,R42*%
X128100000Y-116200000D03*
X128100000Y-114200000D03*
%TD*%
D11*
%TO.C,R41*%
X126200000Y-118300000D03*
X128200000Y-118300000D03*
%TD*%
%TO.C,R40*%
X160900000Y-80000000D03*
X158900000Y-80000000D03*
%TD*%
%TO.C,R39*%
X155900000Y-82600000D03*
X153900000Y-82600000D03*
%TD*%
D12*
%TO.C,R38*%
X158800000Y-87100000D03*
X158800000Y-85100000D03*
%TD*%
D13*
%TO.C,R37*%
X139900000Y-79700000D03*
X141900000Y-79700000D03*
%TD*%
D11*
%TO.C,R36*%
X160900000Y-72400000D03*
X158900000Y-72400000D03*
%TD*%
%TO.C,R35*%
X141900000Y-67200000D03*
X139900000Y-67200000D03*
%TD*%
D13*
%TO.C,R34*%
X160900000Y-74700000D03*
X158900000Y-74700000D03*
%TD*%
D10*
%TO.C,R33*%
X139900000Y-72800000D03*
X139900000Y-74800000D03*
%TD*%
D11*
%TO.C,R32*%
X158900000Y-77800000D03*
X160900000Y-77800000D03*
%TD*%
D13*
%TO.C,R31*%
X139900000Y-77500000D03*
X141900000Y-77500000D03*
%TD*%
D14*
%TO.C,C61*%
X150975000Y-106500000D03*
X149425000Y-106500000D03*
%TD*%
D15*
%TO.C,C32*%
X155600000Y-77450000D03*
X155600000Y-79000000D03*
%TD*%
D16*
%TO.C,C31*%
X145250000Y-72400000D03*
X143700000Y-72400000D03*
%TD*%
M02*
